{
  "default": {
    "paths": {
      "sourceRoot": "src/",
      "entries": "src/entries/",
      "pages": "src/pages/",
      "output": "build/",
      "publicPath": "/",
      "assets": {
        "js": "js/",
        "css": "css/",
        "fonts": "fonts/",
        "images": "images/",
        "templates": ""
      },
      "resolve": {
      },
      "hashes": false
    },
    "kdxTools": false,
    "devServer": {
      "active": false,
      "port": 8080
    },
    "minify": false,
    "provide": {},
    "externals": {},
    "libs": [],
    "basisCss": ["./src/globals/js/_basisCss.js"]
  },
  "development": {
    "kdxTools": true,
    "minify": false,
    "libs": [
      "jQuery"
    ],
    "devServer": {
      "active": true
    }
  },
  "test": {
    "paths": {
      "publicPath": "/_auto/d5/"
    },
    "libs": [
      "jQuery"
    ],
    "kdxTools": true,
    "minify": false
  },
  "production": {
    "paths": {
      "publicPath": "/local/templates/vwd5/assets/",
      "assets": {
        "templates": "templates/"
      }
    },
    "minify": false,
    "externals": {
      "jquery": "jQuery"
    }
  }
}

